name: 'Todo 포스트 관리'
description: |-

  APIs for managing posts
  Todo 포스트를 관리합니다.
endpoints:
  -
    httpMethods:
      - GET
    uri: api/v1/todos
    metadata:
      groupName: 'Todo 포스트 관리'
      groupDescription: |-

        APIs for managing posts
        Todo 포스트를 관리합니다.
      subgroup: ''
      subgroupDescription: ''
      title: '포스트 리스트 가져오기'
      description: ''
      authenticated: false
      custom: []
    headers:
      Content-Type: application/json
      Accept: application/json
      Api-version: v1
    urlParameters: []
    cleanUrlParameters: []
    queryParameters:
      page:
        name: page
        description: 페이지
        required: false
        example: 1
        type: integer
        custom: []
    cleanQueryParameters:
      page: 1
    bodyParameters: []
    cleanBodyParameters: []
    fileParameters: []
    responses:
      -
        status: 200
        content: |
          {
              "data": [
                  {
                      "id": 52,
                      "title": "안녕하세요? - 예시입니다",
                      "content": "하하하하",
                      "deadline": "2021-12-12",
                      "isDone": 52,
                      "updated_at": "4 hours ago 전에 수정되었습니다."
                  },
                  {
                      "id": 51,
                      "title": "안녕하세요?",
                      "content": "하하하",
                      "deadline": "마감기한이 정해져 있지 않습니다.",
                      "isDone": 51,
                      "updated_at": "4 hours ago 전에 수정되었습니다."
                  },
                  {
                      "id": 2,
                      "title": "Reprehenderit.",
                      "content": "Quisquam ipsa dignissimos qui ea ut quis maiores. Sit velit deleniti at est.",
                      "deadline": "마감기한이 정해져 있지 않습니다.",
                      "isDone": 2,
                      "updated_at": "4 hours ago 전에 수정되었습니다."
                  },
                  {
                      "id": 3,
                      "title": "Eum.",
                      "content": "Cum blanditiis voluptas est molestiae ex. Maiores est omnis labore nam atque.",
                      "deadline": "마감기한이 정해져 있지 않습니다.",
                      "isDone": 3,
                      "updated_at": "4 hours ago 전에 수정되었습니다."
                  },
                  {
                      "id": 4,
                      "title": "Iste quae.",
                      "content": "Aut voluptatibus voluptates cum nulla. Eos id et reiciendis numquam placeat.",
                      "deadline": "마감기한이 정해져 있지 않습니다.",
                      "isDone": 4,
                      "updated_at": "4 hours ago 전에 수정되었습니다."
                  }
              ],
              "meta": {
                  "current_page": 1,
                  "from": 1,
                  "last_page": 11,
                  "path": "http://127.0.0.1:8000/api/v1/todos",
                  "per_page": 5,
                  "to": 5,
                  "total": 51
              }
          }
        headers: []
        description: 성공
        custom: []
    responseFields: []
    auth: []
    controller: null
    method: null
    route: null
    custom: []
  -
    httpMethods:
      - POST
    uri: api/v1/todos
    metadata:
      groupName: 'Todo 포스트 관리'
      groupDescription: |-

        APIs for managing posts
        Todo 포스트를 관리합니다.
      subgroup: ''
      subgroupDescription: ''
      title: '포스트 추가하기'
      description: ''
      authenticated: false
      custom: []
    headers:
      Content-Type: application/json
      Accept: application/json
      Api-version: v1
    urlParameters: []
    cleanUrlParameters: []
    queryParameters: []
    cleanQueryParameters: []
    bodyParameters:
      title:
        name: title
        description: '할일 제목'
        required: true
        example: '책 읽기'
        type: string
        custom: []
      content:
        name: content
        description: '할일 내용.'
        required: false
        example: '자기개발에 대한 책을 읽자'
        type: longText
        custom: []
      deadline:
        name: deadline
        description: 마감기한
        required: false
        example: null
        type: date
        custom: []
      isDone:
        name: isDone
        description: 완료여부
        required: true
        example: true
        type: boolean
        custom: []
    cleanBodyParameters:
      title: '책 읽기'
      content: '자기개발에 대한 책을 읽자'
      isDone: true
    fileParameters: []
    responses:
      -
        status: 201
        content: |
          {
              "data": {
                  "id": 54,
                  "title": "새 할일",
                  "content": "저녁 장보기",
                  "deadline": "2021-12-01",
                  "isDone": "미완료",
                  "create_at": "1 second ago 전에 작성되었다."
              }
          }
        headers: []
        description: success
        custom: []
      -
        status: 201
        content: |
          {
              "data": {
                  "id": 50,
                  "title": "빨래하기. - 예시",
                  "content": "빨래돌릴때 수건 먼저 돌리기 - 예시",
                  "deadline": "마감기한이 정해져있지 않습니다.",
                  "isDone": "완료",
                  "create_at": "15 hours ago 전에 작성되었다."
              }
          }
        headers: []
        description: '마감기한이 정해져 있지 않을 때'
        custom: []
      -
        status: 422
        content: |
          {
              "message": "The given data was invalid.",
              "errors": {
                  "deadline": [
                      "The deadline is not a valid date."
                  ]
              }
          }
        headers: []
        description: '데이터가 유효하지 않을 때'
        custom: []
    responseFields: []
    auth: []
    controller: null
    method: null
    route: null
    custom: []
  -
    httpMethods:
      - GET
    uri: 'api/v1/todos/{id}'
    metadata:
      groupName: 'Todo 포스트 관리'
      groupDescription: |-

        APIs for managing posts
        Todo 포스트를 관리합니다.
      subgroup: ''
      subgroupDescription: ''
      title: '특정 할일 가져오기'
      description: ''
      authenticated: false
      custom: []
    headers:
      Content-Type: application/json
      Accept: application/json
      Api-version: v1
    urlParameters:
      id:
        name: id
        description: '할일 아이디'
        required: true
        example: 10
        type: integer
        custom: []
    cleanUrlParameters:
      id: 10
    queryParameters: []
    cleanQueryParameters: []
    bodyParameters: []
    cleanBodyParameters: []
    fileParameters: []
    responses:
      -
        status: 200
        content: |
          {
              "data": {
                  "id": 50,
                  "title": "빨래하기. - 예시",
                  "content": "빨래돌릴때 수건 먼저 돌리기 - 예시",
                  "deadline": "2020-12-08",
                  "isDone": "완료",
                  "create_at": "15 hours ago 전에 작성되었다."
              }
          }
        headers: []
        description: success
        custom: []
      -
        status: 200
        content: |
          {
              "data": {
                  "id": 50,
                  "title": "빨래하기. - 예시",
                  "content": "빨래돌릴때 수건 먼저 돌리기 - 예시",
                  "deadline": "마감기한이 정해져있지 않습니다.",
                  "isDone": "완료",
                  "create_at": "15 hours ago 전에 작성되었다."
              }
          }
        headers: []
        description: '마감기한이 정해져 있지 않을때'
        custom: []
      -
        status: 404
        content: |
          {
              "message": "해당 할일을 찾을 수가 없습니다."
          }
        headers: []
        description: 'todo not found'
        custom: []
    responseFields: []
    auth: []
    controller: null
    method: null
    route: null
    custom: []
  -
    httpMethods:
      - PUT
      - PATCH
    uri: 'api/v1/todos/{id}'
    metadata:
      groupName: 'Todo 포스트 관리'
      groupDescription: |-

        APIs for managing posts
        Todo 포스트를 관리합니다.
      subgroup: ''
      subgroupDescription: ''
      title: '특정 할일 수정하기'
      description: ''
      authenticated: false
      custom: []
    headers:
      Content-Type: application/json
      Accept: application/json
      Api-version: v1
    urlParameters:
      id:
        name: id
        description: '할일 아이디'
        required: true
        example: 10
        type: integer
        custom: []
    cleanUrlParameters:
      id: 10
    queryParameters: []
    cleanQueryParameters: []
    bodyParameters:
      title:
        name: title
        description: '할일 제목'
        required: true
        example: '책 읽기'
        type: string
        custom: []
      content:
        name: content
        description: '할일 내용.'
        required: false
        example: '자기개발에 대한 책을 읽자'
        type: longText
        custom: []
      deadline:
        name: deadline
        description: 마감기한
        required: false
        example: null
        type: date
        custom: []
      isDone:
        name: isDone
        description: 완료여부
        required: true
        example: true
        type: boolean
        custom: []
    cleanBodyParameters:
      title: '책 읽기'
      content: '자기개발에 대한 책을 읽자'
      isDone: true
    fileParameters: []
    responses:
      -
        status: 200
        content: |
          {
              "data": {
                  "id": 54,
                  "title": "새 할일",
                  "content": "저녁 장보기",
                  "deadline": "2021-12-01",
                  "isDone": "미완료",
                  "create_at": "1 second ago 전에 작성되었다."
              }
          }
        headers: []
        description: success
        custom: []
      -
        status: 404
        content: |
          {
              "message": "해당 할일을 찾을 수가 없습니다."
          }
        headers: []
        description: 'todo not found'
        custom: []
      -
        status: 422
        content: |
          {
              "message": "The given data was invalid.",
              "errors": {
                  "deadline": [
                      "The deadline is not a valid date."
                  ]
              }
          }
        headers: []
        description: '데이터가 유효하지 않을 때'
        custom: []
    responseFields: []
    auth: []
    controller: null
    method: null
    route: null
    custom: []
  -
    httpMethods:
      - DELETE
    uri: 'api/v1/todos/{id}'
    metadata:
      groupName: 'Todo 포스트 관리'
      groupDescription: |-

        APIs for managing posts
        Todo 포스트를 관리합니다.
      subgroup: ''
      subgroupDescription: ''
      title: '특정 할일 삭제하기'
      description: ''
      authenticated: false
      custom: []
    headers:
      Content-Type: application/json
      Accept: application/json
      Api-version: v1
    urlParameters:
      id:
        name: id
        description: '할일 아이디'
        required: true
        example: 10
        type: integer
        custom: []
    cleanUrlParameters:
      id: 10
    queryParameters: []
    cleanQueryParameters: []
    bodyParameters: []
    cleanBodyParameters: []
    fileParameters: []
    responses:
      -
        status: 204
        content: '{}'
        headers: []
        description: success
        custom: []
      -
        status: 404
        content: |
          {
              "message": "해당 할일을 찾을 수가 없습니다."
          }
        headers: []
        description: 'todo not found'
        custom: []
    responseFields: []
    auth: []
    controller: null
    method: null
    route: null
    custom: []
